[
  {
    "name": "Testt",
    "soil": "Грунтова",
    "origin": "TestOrigin",
    "visualParameters": {
      "stemColor": "TestStemColor",
      "leafColor": "TestLeafColor",
      "flowerSize": "TestSize"
    },
    "growingTips": {
      "temperature": 36.6,
      "lightning": "true",
      "watering": 26
    },
    "multiplying": "TestMultiplying"
  },
  {
    "name": "Testtt",
    "soil": "Грунтова",
    "origin": "TestOrigin",
    "visualParameters": {
      "stemColor": "TestStemColor",
      "leafColor": "TestLeafColor",
      "flowerSize": "TestSize"
    },
    "growingTips": {
      "temperature": 36.6,
      "lightning": "true",
      "watering": 26
    },
    "multiplying": "TestMultiplying"
  },
  {
    "name": "Test",
    "soil": "Грунтова",
    "origin": "TestOrigin",
    "visualParameters": {
      "stemColor": "TestStemColor",
      "leafColor": "TestLeafColor",
      "flowerSize": "TestSize"
    },
    "growingTips": {
      "temperature": 36.6,
      "lightning": "true",
      "watering": 26
    },
    "multiplying": "TestMultiplying"
  }
]
